…
``` r
pulse_data_tidy <- 
  pulse_data %>% 
  pivot_longer(
    bdi_score_bl:bdi_score_12m,
    names_to = "visit",
    names_prefix = "bdi_score_",
    values_to = "bdi"
  ) %>% 
  relocate(id, visit) %>% 
  mutate(visit = recode(visit, "bl" = "00m"))
pulse_data_tidy
```

    ## # A tibble: 4,348 x 5
    ##       id visit   age sex     bdi
    ##    <dbl> <chr> <dbl> <chr> <dbl>
    ##  1 10003 00m    48.0 male      7
    ##  2 10003 01m    48.0 male      1
    ##  3 10003 06m    48.0 male      2
    ##  4 10003 12m    48.0 male      0
    ##  5 10015 00m    72.5 male      6
    ##  6 10015 01m    72.5 male     NA
    ##  7 10015 06m    72.5 male     NA
    ##  8 10015 12m    72.5 male     NA
    ##  9 10022 00m    58.5 male     14
    ## 10 10022 01m    58.5 male      3
    ## # … with 4,338 more rows
…
    ## Parsed with column specification:
    ## cols(
    ##   `Litter Number` = col_character(),
    ##   Sex = col_double(),
    ##   `PD ears` = col_double(),
    ##   `PD eyes` = col_double(),
    ##   `PD pivot` = col_double(),
    ##   `PD walk` = col_double()
    ## )

``` r
pups_df
```

    ## # A tibble: 313 x 6
    ##    litter_number sex   pd_ears pd_eyes pd_pivot pd_walk
    ##    <chr>         <chr>   <dbl>   <dbl>    <dbl>   <dbl>
    ##  1 #85           male        4      13        7      11
    ##  2 #85           male        4      13        7      12
    ##  3 #1/2/95/2     male        5      13        7       9
    ##  4 #1/2/95/2     male        5      13        8      10
    ##  5 #5/5/3/83/3-3 male        5      13        8      10
    ##  6 #5/5/3/83/3-3 male        5      14        6       9
    ##  7 #5/4/2/95/2   male       NA      14        5       9
    ##  8 #4/2/95/3-3   male        4      13        6       8
    ##  9 #4/2/95/3-3   male        4      13        7       9
    ## 10 #2/2/95/3-2   male        4      NA        8      10
    ## # … with 303 more rows
…
``` r
litters_df
```

    ## # A tibble: 49 x 9
    ##    litter_number dose  day_of_tx gd0_weight gd18_weight gd_of_birth
    ##    <chr>         <chr> <chr>          <dbl>       <dbl>       <dbl>
    ##  1 #85           Con   7               19.7        34.7          20
    ##  2 #1/2/95/2     Con   7               27          42            19
    ##  3 #5/5/3/83/3-3 Con   7               26          41.4          19
    ##  4 #5/4/2/95/2   Con   7               28.5        44.1          19
    ##  5 #4/2/95/3-3   Con   7               NA          NA            20
    ##  6 #2/2/95/3-2   Con   7               NA          NA            20
    ##  7 #1/5/3/83/3-… Con   7               NA          NA            20
    ##  8 #3/83/3-3     Con   8               NA          NA            20
    ##  9 #2/95/3       Con   8               NA          NA            20
    ## 10 #3/5/2/2/95   Con   8               28.5        NA            20
    ## # … with 39 more rows, and 3 more variables: pups_born_alive <dbl>,
    ## #   pups_dead_birth <dbl>, pups_survive <dbl>
…
